{
    "pack_format": 3,
    "zip": {
        "prefix": "rotw-",
        "exclude": [
            "**/*.js",
            "**/*.xcf"
        ],
        "devpath": "/d/AppData/minecraft/client/vanilla/resourcepacks/rotw.zip"
    }
}